<?xml version="1.0" encoding="utf-8"?>
<!-- Generator: Adobe Illustrator 15.1.0, SVG Export Plug-In . SVG Version: 6.00 Build 0)  -->
<!DOCTYPE svg PUBLIC "-//W3C//DTD SVG 1.1//EN" "http://www.w3.org/Graphics/SVG/1.1/DTD/svg11.dtd">
<svg version="1.1" id="Capa_1" xmlns="http://www.w3.org/2000/svg" xmlns:xlink="http://www.w3.org/1999/xlink" x="0px" y="0px"
	 width="80px" height="80px" viewBox="0 0 80 80" enable-background="new 0 0 80 80" xml:space="preserve">
<path display="none" fill="#343434" d="M23.79,27.601c1.974,1.173,4.192,1.759,6.406,1.759c2.213,0,4.43-0.586,6.404-1.759
	c4.697-2.79,7.246-8.309,6.989-15.142c-0.14-3.741-1.61-6.607-3.754-8.646c-2.256-2.17-5.373-3.496-8.89-3.758
	c-0.215-0.016-0.883-0.083-1.427-0.042c-6.023,0.454-12.41,4.452-12.715,12.437c0,0.004-0.01,0.005-0.01,0.01
	c0,0.002,0,0.003,0,0.005C16.608,19.294,19.095,24.812,23.79,27.601z M30.202,3.657c1.891,0.077,4.042,0.619,5.842,1.815
	c0.891,0.596,1.68,1.341,2.309,2.242c-5.166,2.326-11.584,3.833-17.81,4.18C21.103,6.452,25.708,3.838,30.202,3.657z M39.751,11.124
	c0.085,0.468,0.139,0.958,0.158,1.472c0.203,5.444-1.688,9.758-5.188,11.838c-2.788,1.656-6.251,1.656-9.039,0
	c-2.833-1.683-4.612-4.83-5.079-8.854C27.262,15.224,34.161,13.616,39.751,11.124z M38.168,38.989l-3.372,4.221
	c-0.635,0.795-1.794,0.925-2.589,0.29c-0.795-0.636-0.924-1.795-0.29-2.59l2.755-3.447c-2.763-0.788-5.895-0.836-8.851-0.019
	l2.77,3.466c0.635,0.795,0.505,1.954-0.289,2.589c-0.795,0.636-1.954,0.506-2.589-0.289l-3.407-4.264
	c-2.569,1.576-4.262,3.943-4.793,6.81l-3.938,21.258H31.94c1.017,0,1.842,0.824,1.842,1.842c0,1.021-0.825,1.845-1.842,1.845H11.36
	c-0.547,0-1.066-0.243-1.416-0.664c-0.35-0.42-0.495-0.978-0.395-1.517l4.34-23.434c1.003-5.413,4.936-9.477,10.792-11.148
	c3.167-0.904,6.7-1.002,9.949-0.277c3.489,0.779,6.461,2.427,8.595,4.767c0.688,0.751,0.631,1.917-0.121,2.601
	c-0.75,0.687-1.916,0.633-2.603-0.119C39.833,40.176,39.045,39.533,38.168,38.989z M50.503,75.212c0,1.017-0.825,1.843-1.842,1.843
	h-8.12c-1.017,0-1.83-0.854-1.83-1.869V48.254c0-1.018,0.813-1.775,1.83-1.775h20.754c1.018,0,1.912,0.758,1.912,1.775v2.316
	c0,1.019-0.824,1.843-1.842,1.843s-1.842-0.824-1.842-1.843v-0.408H42.395V73.37h6.27C49.678,73.37,50.503,74.195,50.503,75.212z
	 M61.295,66.205c5.236,0,9.186-2.376,9.186-5.525c0-3.15-3.946-5.525-9.186-5.525c-5.236,0-9.186,2.375-9.186,5.525
	C52.109,63.829,56.059,66.205,61.295,66.205z M56.928,59.723c1.119-0.563,2.711-0.885,4.367-0.885s3.248,0.322,4.367,0.885
	c0.938,0.469,1.135,0.896,1.135,0.957c0,0.064-0.197,0.488-1.135,0.959c-1.119,0.563-2.711,0.883-4.367,0.883
	s-3.248-0.319-4.367-0.883c-0.938-0.471-1.135-0.895-1.135-0.959C55.793,60.616,55.99,60.191,56.928,59.723z M69.35,69.146
	c0.441,0.916,0.055,2.018-0.859,2.457c-2.012,0.967-4.563,1.498-7.192,1.498s-5.187-0.531-7.19-1.498
	c-0.916-0.44-1.306-1.541-0.861-2.457c0.439-0.918,1.541-1.306,2.458-0.862c1.521,0.731,3.509,1.134,5.597,1.134
	s4.075-0.402,5.596-1.134C67.809,67.844,68.908,68.229,69.35,69.146z M69.35,76.044c0.441,0.917,0.055,2.019-0.859,2.458
	C66.479,79.469,63.924,80,61.295,80c-2.63,0-5.184-0.531-7.193-1.498c-0.916-0.441-1.303-1.541-0.858-2.458
	c0.438-0.917,1.541-1.302,2.458-0.862c1.521,0.732,3.509,1.135,5.597,1.135s4.075-0.399,5.599-1.135
	C67.809,74.741,68.908,75.127,69.35,76.044z"/>
<g>
	<g>
		<g>
			<path fill="#006C11" d="M13.542,53.514c0.692,0,1.256-0.563,1.256-1.256V28.399c0-0.694-0.564-1.256-1.256-1.256
				c-0.696,0-1.256,0.562-1.256,1.256v23.859C12.287,52.95,12.847,53.514,13.542,53.514z"/>
			<path fill="#006C11" d="M67,58.18c-2.654,0-4.813,2.157-4.813,4.812c0,2.651,2.158,4.813,4.813,4.813s4.813-2.16,4.813-4.813
				C71.813,60.337,69.654,58.18,67,58.18z M67,65.29c-1.27,0-2.3-1.032-2.3-2.3s1.03-2.301,2.3-2.301s2.3,1.033,2.3,2.301
				S68.27,65.29,67,65.29z"/>
			<path fill="#343434" d="M79.814,68.248L63.918,8.809c-0.639-2.387-2.813-4.053-5.288-4.053c-0.473,0-0.944,0.063-1.403,0.185
				L46.479,7.815c-1.408,0.376-2.584,1.28-3.316,2.548c-0.73,1.267-0.928,2.738-0.553,4.144l1.578,5.9
				c-0.535-0.176-1.104-0.272-1.698-0.272H29.672c-1.089,0-2.102,0.321-2.956,0.871V8.123c0-3.014-2.45-5.466-5.465-5.466H5.83
				c-3.014,0-5.466,2.452-5.466,5.466v64.411C0.364,75.546,2.816,78,5.831,78h15.423c1.691,0,3.204-0.773,4.208-1.982
				C26.466,77.227,27.98,78,29.672,78h12.816c3.014,0,5.468-2.454,5.468-5.467v-38.04l10.552,39.454
				C59.146,76.332,61.32,78,63.794,78c0.476,0,0.946-0.063,1.407-0.188l10.746-2.873C78.857,74.162,80.592,71.16,79.814,68.248z
				 M24.205,72.533c0,1.629-1.324,2.955-2.952,2.955H5.831c-1.629,0-2.954-1.326-2.954-2.955v-2.746h21.329L24.205,72.533
				L24.205,72.533z M24.205,67.275H2.876v-4.864h21.329V67.275z M24.205,59.898H2.876V20.757h21.329V59.898z M24.205,18.245H2.876
				V13.38h21.329V18.245z M24.205,10.868L24.205,10.868H2.876V8.123c0-1.628,1.325-2.954,2.954-2.954h15.423
				c1.627,0,2.952,1.326,2.952,2.954V10.868L24.205,10.868z M45.443,72.533c0,1.629-1.325,2.955-2.955,2.955H29.672
				c-1.629,0-2.956-1.326-2.956-2.955V25.602c0-1.629,1.326-2.955,2.956-2.955h12.816c1.63,0,2.955,1.325,2.955,2.955V72.533z
				 M45.036,13.859c-0.203-0.758-0.095-1.553,0.301-2.239s1.032-1.175,1.791-1.378l10.748-2.874c0.246-0.067,0.501-0.1,0.756-0.1
				c1.341,0,2.515,0.9,2.86,2.189l1.757,6.577l-16.454,4.401L45.036,13.859z M47.443,22.861l16.455-4.4l1.076,4.03l-16.451,4.401
				L47.443,22.861z M49.171,29.318l16.454-4.4l0.541,2.022l-16.452,4.4L49.171,29.318z M50.361,33.766l16.453-4.4l1.08,4.03
				l-16.455,4.401L50.361,33.766z M75.298,72.514L64.55,75.387c-0.245,0.066-0.501,0.102-0.756,0.102c-1.34,0-2.517-0.901-2.86-2.19
				l-8.846-33.074l16.454-4.4l8.847,33.074C77.809,70.471,76.871,72.094,75.298,72.514z"/>
			<path fill="#343434" d="M70.73,53.598c-0.18-0.671-0.871-1.066-1.539-0.889l-9.233,2.471c-0.671,0.178-1.067,0.866-0.89,1.536
				c0.149,0.563,0.658,0.933,1.214,0.933c0.104,0,0.216-0.013,0.323-0.043l9.234-2.47C70.512,54.957,70.91,54.27,70.73,53.598z"/>
			<path fill="#343434" d="M41.411,48.529H30.75c-0.696,0-1.256,0.562-1.256,1.256c0,0.693,0.56,1.256,1.256,1.256h10.662
				c0.695,0,1.257-0.563,1.257-1.256C42.668,49.091,42.107,48.529,41.411,48.529z"/>
			<path fill="#006C11" d="M36.081,32.189c-3.895,0-7.062,3.168-7.062,7.062c0,3.896,3.167,7.063,7.062,7.063
				c3.894,0,7.062-3.168,7.062-7.063C43.143,35.357,39.975,32.189,36.081,32.189z M36.081,43.801c-2.508,0-4.55-2.04-4.55-4.55
				c0-2.508,2.042-4.549,4.55-4.549s4.549,2.041,4.549,4.549C40.63,41.761,38.588,43.801,36.081,43.801z"/>
			<path fill="#343434" d="M41.411,53.361H30.75c-0.696,0-1.256,0.563-1.256,1.257c0,0.694,0.56,1.256,1.256,1.256h10.662
				c0.695,0,1.257-0.562,1.257-1.256C42.668,53.926,42.107,53.361,41.411,53.361z"/>
		</g>
	</g>
</g>
</svg>
