<?xml version="1.0" encoding="utf-8"?>
<!-- Generator: Adobe Illustrator 15.1.0, SVG Export Plug-In . SVG Version: 6.00 Build 0)  -->
<!DOCTYPE svg PUBLIC "-//W3C//DTD SVG 1.1//EN" "http://www.w3.org/Graphics/SVG/1.1/DTD/svg11.dtd">
<svg version="1.1" id="Layer_1" xmlns="http://www.w3.org/2000/svg" xmlns:xlink="http://www.w3.org/1999/xlink" x="0px" y="0px"
	 width="80px" height="80px" viewBox="0 0 80 80" enable-background="new 0 0 80 80" xml:space="preserve">
<g>
	<g>
		<g>
			<path fill="#343434" d="M29.333,53.32c-2.048,0-3.874,1.195-4.756,2.959c-0.623-0.192-1.267-0.291-1.911-0.291
				c-3.676,0-6.667,2.99-6.667,6.666c0,0.736,0.597,1.334,1.333,1.334s1.333-0.598,1.333-1.334c0-2.205,1.795-4,4-4
				c0.707,0,1.394,0.195,2.04,0.582c0.384,0.229,0.856,0.252,1.259,0.059c0.402-0.191,0.683-0.572,0.745-1.016
				c0.186-1.307,1.313-2.291,2.623-2.291c1.377,0,2.511,1.044,2.636,2.427c0.05,0.567,0.455,1.037,1.005,1.175
				c0.552,0.137,1.129-0.09,1.44-0.566c1.237-1.899,3.327-3.034,5.585-3.034s4.348,1.135,5.585,3.034
				c0.312,0.478,0.89,0.703,1.44,0.566c0.551-0.138,0.953-0.607,1.004-1.175c0.127-1.383,1.26-2.427,2.637-2.427
				c1.311,0,2.438,0.984,2.623,2.291c0.063,0.441,0.342,0.824,0.745,1.016c0.403,0.193,0.876,0.172,1.259-0.059
				c0.646-0.387,1.333-0.582,2.04-0.582c2.205,0,4,1.795,4,4c0,0.736,0.597,1.334,1.333,1.334S64,63.391,64,62.654
				c0-3.676-2.991-6.666-6.668-6.666c-0.645,0-1.287,0.099-1.91,0.291c-0.883-1.764-2.708-2.959-4.756-2.959
				c-1.854,0-3.484,0.938-4.438,2.387c-1.69-1.521-3.896-2.387-6.229-2.387c-2.335,0-4.539,0.865-6.229,2.387
				C32.818,54.258,31.187,53.32,29.333,53.32z"/>
			<path fill="#006C11" d="M45.334,21.321c0-2.941-2.393-5.333-5.334-5.333c-2.941,0-5.333,2.392-5.333,5.333
				c0,2.941,2.392,5.333,5.333,5.333C42.941,26.654,45.334,24.263,45.334,21.321z M40,23.988c-1.471,0-2.667-1.196-2.667-2.667
				c0-1.471,1.196-2.667,2.667-2.667c1.471,0,2.666,1.196,2.666,2.667C42.666,22.792,41.471,23.988,40,23.988z"/>
			<path fill="#343434" d="M38.667,38.655v10.667c0,0.734,0.598,1.332,1.333,1.332c0.736,0,1.334-0.598,1.334-1.332V38.655
				c0-0.736-0.598-1.333-1.334-1.333C39.264,37.321,38.667,37.918,38.667,38.655z"/>
			<path fill="#343434" d="M4,69.32c0.736,0,1.333-0.596,1.333-1.332v-40c0-1.944,2.056-4,4-4h16c0.736,0,1.333-0.598,1.333-1.333
				c0-0.735-0.597-1.333-1.333-1.333h-16c-3.427,0-6.667,3.24-6.667,6.667v40C2.667,68.725,3.264,69.32,4,69.32z"/>
			<path fill="#343434" d="M78.666,66.654h-1.332V27.988c0-3.427-3.24-6.667-6.668-6.667h-16c-0.734,0-1.332,0.597-1.332,1.333
				c0,0.736,0.598,1.333,1.332,1.333h16c1.945,0,4,2.056,4,4v40c0,0.736,0.598,1.334,1.334,1.334h1.334v4c0,1.943-2.057,4-4,4H6.667
				c-1.497,0-3.06-1.219-3.7-2.668h70.367c0.734,0,1.332-0.598,1.332-1.332c0-0.736-0.598-1.334-1.332-1.334h-72
				C0.597,71.988,0,72.585,0,73.32c0,3.428,3.24,6.668,6.667,6.668h66.667c3.426,0,6.666-3.24,6.666-6.668v-5.332
				C80,67.252,79.402,66.654,78.666,66.654z"/>
			<path fill="#343434" d="M24,46.654c0,0.736,0.597,1.334,1.333,1.334h4v1.332c0,0.736,0.597,1.334,1.333,1.334S32,50.057,32,49.32
				v-1.332h2.667c0.736,0,1.333-0.598,1.333-1.334c0-0.735-0.598-1.334-1.333-1.334h-8v-1.332c0-3.93,1.345-5.576,2.77-7.32
				C30.696,35.124,32,33.527,32,30.655V17.322c0-4.655,2.19-6.968,2.357-7.147L40,3.404l5.717,6.853
				C45.811,10.354,48,12.667,48,17.321v13.333c0,2.872,1.305,4.469,2.564,6.013c1.424,1.744,2.77,3.391,2.77,7.319v1.334h-8
				c-0.736,0-1.334,0.597-1.334,1.332c0,0.736,0.598,1.334,1.334,1.334H48v1.334c0,0.734,0.598,1.332,1.334,1.332
				c0.734,0,1.332-0.598,1.332-1.332v-1.334h4c0.736,0,1.334-0.598,1.334-1.334v-2.666c0-4.879-1.868-7.167-3.369-9.006
				c-1.141-1.396-1.965-2.405-1.965-4.327V17.321c0-5.819-2.932-8.817-2.977-8.854l-6.666-8c-0.506-0.608-1.542-0.608-2.048,0
				L32.39,8.378c-0.125,0.125-3.057,3.124-3.057,8.943v13.333c0,1.922-0.824,2.931-1.964,4.327C25.868,36.82,24,39.108,24,43.988
				V46.654L24,46.654z"/>
			<path fill="#343434" d="M26.667,27.988c0-0.736-0.597-1.333-1.333-1.333h-12c-1.825,0-5.333,1.689-5.333,4v37.333
				c0,0.736,0.598,1.332,1.333,1.332h61.333c0.735,0,1.334-0.596,1.334-1.332V30.655c0-2.056-1.942-4-4-4H54.666
				c-0.734,0-1.332,0.597-1.332,1.333c0,0.736,0.598,1.333,1.332,1.333H68c0.6,0,1.334,0.735,1.334,1.333v36H10.667l-0.008-35.932
				c0.164-0.47,1.817-1.401,2.675-1.401h12C26.069,29.321,26.667,28.724,26.667,27.988z"/>
		</g>
	</g>
</g>
</svg>
